         run       event       nTopo   nIdTracks  nTauTracks       nTaus      nMuons       nElec   nTrueElec   nFakeElec       nPhot   nTruePhot   nFakePhot
      405514    13085544           9           0           0           0           0           0           0           0           0           0           0
      405514    13085965           8           0           0           0           0           0           0           0           0           0           0
      405514    13086214          11           0           0           1           0           0           0           0           0           0           0
      405514    13086581          14           0           0           0           0           0           0           0           0           0           0
      405514    13086860          12           0           0           0           0           0           0           0           0           0           0
      405514    13086863           8           0           0           0           0           0           0           0           0           0           0
      405514    13086975           6           0           0           0           0           0           0           0           0           0           0
      405514    13087025           5           0           0           0           0           0           0           0           0           0           0
      405514    13087154          12           0           0           0           0           0           0           0           0           0           0
      405514    13087520           8           0           0           0           0           0           0           0           0           0           0
      405514    13087583           9           0           0           0           0           0           0           0           0           0           0
      405514    13087919           5           0           0           0           0           0           0           0           0           0           0
      405514    13088022           6           0           0           0           0           0           0           0           0           0           0
      405514    13088293           9           0           0           0           0           0           0           0           0           0           0
      405514    13088487          10           0           0           0           0           0           0           0           0           0           0
      405514    13088857           7           0           0           0           0           0           0           0           0           0           0
      405514    13088973           6           0           0           0           0           0           0           0           0           0           0
      405514    13089224          10           0           0           0           0           0           0           0           0           0           0
      405514    13089227           7           0           0           0           0           0           0           0           0           0           0
      405514    13089339           7           0           0           0           0           0           0           0           0           0           0
      405514    13089362          11           0           0           0           0           0           0           0           0           0           0
      405514    13089369           9           0           0           0           0           0           0           0           0           0           0
      405514    13089637           5           0           0           0           0           0           0           0           0           0           0
      405514    13089650           9           0           0           0           0           0           0           0           0           0           0
      405514    13089668          12           0           0           0           0           0           0           0           0           0           0
      405514    13089690          15           0           0           0           0           0           0           0           0           0           0
      405514    13089715           7           0           0           0           0           0           0           0           0           0           0
      405514    13089743          17           0           0           1           0           0           0           0           0           0           0
      405514    13089782           6           0           0           0           0           0           0           0           0           0           0
      405514    13089808          12           0           0           1           0           0           0           0           0           0           0
      405514    13089886           9           0           0           0           0           0           0           0           0           0           0
      405514    13090063           7           0           0           0           0           0           0           0           0           0           0
      405514    13090411           8           0           0           0           0           0           0           0           0           0           0
      405514    13091223           6           0           0           0           0           0           0           0           0           0           0
      405514    13091566           9           0           0           0           0           0           0           0           0           0           0
      405514    13091859           9           0           0           0           0           0           0           0           0           0           0
      405514    13091987           6           0           0           0           0           0           0           0           0           0           0
      405514    13092092          11           0           0           0           0           0           0           0           0           0           0
      405514    13092462           6           0           0           0           0           0           0           0           0           0           0
      405514    13092814           7           0           0           0           0           0           0           0           0           0           0
      405514    13092817           7           0           0           0           0           0           0           0           0           0           0
      405514    13092922          11           0           0           0           0           0           0           0           0           0           0
      405514    13093025           6           0           0           0           0           0           0           0           0           0           0
      405514    13093046           7           0           0           0           0           0           0           0           0           0           0
      405514    13093103          16           0           0           0           0           0           0           0           0           0           0
      405514    13093300           9           0           0           0           0           0           0           0           0           0           0
      405514    13093500           7           0           0           0           0           0           0           0           0           0           0
      405514    13093732           6           0           0           0           0           0           0           0           0           0           0
      405514    13093804           8           0           0           0           0           0           0           0           0           0           0
      405514    13093890          10           0           0           0           0           0           0           0           0           0           0
      405514    13093905           5           0           0           0           0           0           0           0           0           0           0
      405514    13093932          10           0           0           0           0           0           0           0           0           0           0
      405514    13094031          10           0           0           0           0           0           0           0           0           0           0
      405514    13094034           8           0           0           0           0           0           0           0           0           0           0
      405514    13094380           5           0           0           0           0           0           0           0           0           0           0
      405514    13094477           6           0           0           0           0           0           0           0           0           0           0
      405514    13094895          10           0           0           0           0           0           0           0           0           0           0
      405514    13095904          17           0           0           0           0           0           0           0           0           0           0
      405514    13096152           4           0           0           0           0           0           0           0           0           0           0
      405514    13096269          12           0           0           0           0           0           0           0           0           0           0
      405514    13096333           7           0           0           0           0           0           0           0           0           0           0
      405514    13096861           5           0           0           0           0           0           0           0           0           0           0
      405514    13096931           8           0           0           0           0           0           0           0           0           0           0
      405514    13097526           7           0           0           0           0           0           0           0           0           0           0
      405514    13097765           6           0           0           0           0           0           0           0           0           0           0
      405514    13097957           4           0           0           0           0           0           0           0           0           0           0
      405514    13097976           8           0           0           0           0           0           0           0           0           0           0
      405514    13098229         173          26           3           2          18           2           0           2           2           0           2
      405514    13098527          10           0           0           0           0           0           0           0           0           0           0
      405514    13098556           7           0           0           0           0           0           0           0           0           0           0
      405514    13098853           7           0           0           0           0           0           0           0           0           0           0
      405514    13098863           8           0           0           0           0           0           0           0           0           0           0
      405514    13099145          10           0           0           0           0           0           0           0           0           0           0
      405514    13099305           6           0           0           0           0           0           0           0           0           0           0
      405514    13100288           5           0           0           0           0           0           0           0           0           0           0
      405514    13100554           7           0           0           0           0           0           0           0           0           0           0
      405514    13100683           6           0           0           0           0           0           0           0           0           0           0
      405514    13100802           8           0           0           0           0           0           0           0           0           0           0
      405514    13100873           9           0           0           0           0           0           0           0           0           0           0
      405514    13100925          11           0           0           0           0           0           0           0           0           0           0
      405514    13101318           6           0           0           0           0           0           0           0           0           0           0
      405514    13101523          13           0           0           0           0           0           0           0           0           0           0
      405514    13101677           8           0           0           0           0           0           0           0           0           0           0
      405514    13102070           7           0           0           0           0           0           0           0           0           0           0
      405514    13102162           8           0           0           0           0           0           0           0           0           0           0
      405514    13102402          14           0           0           0           0           0           0           0           0           0           0
      405514    13102693           9           0           0           0           0           0           0           0           0           0           0
      405514    13102836          19           0           0           0           0           0           0           0           0           0           0
      405514    13103439           7           0           0           0           0           0           0           0           0           0           0
      405514    13103493           7           0           0           0           0           0           0           0           0           0           0
      405514    13103817           9           0           0           0           0           0           0           0           0           0           0
      405514    13103895           9           0           0           0           0           0           0           0           0           0           0
      405514    13103999           7           0           0           0           0           0           0           0           0           0           0
      405514    13104408           6           0           0           0           0           0           0           0           0           0           0
      405514    13104597           8           0           0           0           0           0           0           0           0           0           0
      405514    13104672          15           0           0           0           0           0           0           0           0           0           0
      405514    13104679           8           0           0           0           0           0           0           0           0           0           0
      405514    13104756           6           0           0           0           0           0           0           0           0           0           0
      405514    13105254           8           0           0           0           0           0           0           0           0           0           0
      405514    13105301          10           0           0           0           0           0           0           0           0           0           0
      405514    13105325          10           0           0           0           0           0           0           0           0           0           0
      405514    13105701           3           0           0           0           0           0           0           0           0           0           0
      405514    13105840           7           0           0           0           0           0           0           0           0           0           0
      405514    13105940           9           0           0           0           0           0           0           0           0           0           0
      405514    13105989           8           0           0           0           0           0           0           0           0           0           0
      405514    13106010           6           0           0           0           0           0           0           0           0           0           0
      405514    13106102          10           0           0           0           0           0           0           0           0           0           0
      405514    13106244           5           0           0           0           0           0           0           0           0           0           0
      405514    13106346           5           0           0           0           0           0           0           0           0           0           0
      405514    13106374           7           0           0           0           0           0           0           0           0           0           0
      405514    13106425          10           0           0           0           0           0           0           0           0           0           0
      405514    13106634           3           0           0           0           0           0           0           0           0           0           0
      405514    13106650          10           0           0           0           0           0           0           0           0           0           0
      405514    13106669           4           0           0           0           0           0           0           0           0           0           0
      405514    13106684           5           0           0           0           0           0           0           0           0           0           0
      405514    13106766           7           0           0           0           0           0           0           0           0           0           0
      405514    13106873          12           0           0           0           0           0           0           0           0           0           0
      405514    13107243           9           0           0           0           0           0           0           0           0           0           0
      405514    13107375          10           0           0           0           0           0           0           0           0           0           0
      405514    13107689           2           0           0           0           0           0           0           0           0           0           0
      405514    13107892           8           0           0           0           0           0           0           0           0           0           0
      405514    13108197          11           0           0           0           0           0           0           0           0           0           0
      405514    13108397          10           0           0           0           0           0           0           0           0           0           0
      405514    13108496           9           0           0           0           0           0           0           0           0           0           0
      405514    13109105           5           0           0           0           0           0           0           0           0           0           0
      405514    13109626          11           0           0           0           0           0           0           0           0           0           0
      405514    13110007           7           0           0           0           0           0           0           0           0           0           0
      405514    13110180           4           0           0           0           0           0           0           0           0           0           0
      405514    13110844          11           0           0           0           0           0           0           0           0           0           0
      405514    13110947          10           0           0           0           0           0           0           0           0           0           0
      405514    13111135           4           0           0           0           0           0           0           0           0           0           0
      405514    13111212           7           0           0           0           0           0           0           0           0           0           0
      405514    13111576           8           0           0           0           0           0           0           0           0           0           0
      405514    13111661           5           0           0           0           0           0           0           0           0           0           0
      405514    13111722           6           0           0           0           0           0           0           0           0           0           0
      405514    13111780           6           0           0           0           0           0           0           0           0           0           0
      405514    13111870          12           0           0           0           0           0           0           0           0           0           0
      405514    13112515          10           0           0           0           0           0           0           0           0           0           0
      405514    13112624           3           0           0           0           0           0           0           0           0           0           0
      405514    13112917           3           0           0           0           0           0           0           0           0           0           0
      405514    13113168           5           0           0           0           0           0           0           0           0           0           0
      405514    13113329          10           0           0           0           0           0           0           0           0           0           0
      405514    13113547           6           0           0           0           0           0           0           0           0           0           0
      405514    13113706           4           0           0           0           0           0           0           0           0           0           0
      405514    13113826           9           0           0           0           0           0           0           0           0           0           0
      405514    13114476          10           0           0           0           0           0           0           0           0           0           0
      405514    13114489          12           0           0           0           0           0           0           0           0           0           0
      405514    13114506           6           0           0           0           0           0           0           0           0           0           0
      405514    13114896           6           0           0           0           0           0           0           0           0           0           0
      405514    13114914           4           0           0           0           0           0           0           0           0           0           0
      405514    13115011           5           0           0           0           0           0           0           0           0           0           0
      405514    13115214           8           0           0           0           0           0           0           0           0           0           0
      405514    13115553          18           0           0           0           0           0           0           0           0           0           0
      405514    13115833           9           0           0           0           0           0           0           0           0           0           0
      405514    13115837           5           0           0           0           0           0           0           0           0           0           0
      405514    13116788           6           0           0           0           0           0           0           0           0           0           0
      405514    13117086           6           0           0           0           0           0           0           0           0           0           0
      405514    13117208           8           0           0           0           0           0           0           0           0           0           0
      405514    13117275           4           0           0           0           0           0           0           0           0           0           0
      405514    13117380           5           0           0           0           0           0           0           0           0           0           0
      405514    13117569          10           0           0           0           0           0           0           0           0           0           0
      405514    13117570         253          20           4           3          12           0           0           0           3           0           3
      405514    13117721           8           0           0           0           0           0           0           0           0           0           0
      405514    13117840           6           0           0           0           0           0           0           0           0           0           0
      405514    13117875           7           0           0           0           0           0           0           0           0           0           0
      405514    13118427           9           0           0           0           0           0           0           0           0           0           0
      405514    13118472           8           0           0           0           0           0           0           0           0           0           0
      405514    13118611           5           0           0           0           0           0           0           0           0           0           0
      405514    13118908           9           0           0           0           0           0           0           0           0           0           0
      405514    13118983           4           0           0           0           0           0           0           0           0           0           0
      405514    13119253          13           0           0           0           0           0           0           0           0           0           0
      405514    13119429           8           0           0           0           0           0           0           0           0           0           0
      405514    13119464           3           0           0           0           0           0           0           0           0           0           0
      405514    13119466           8           0           0           0           0           0           0           0           0           0           0
      405514    13119725          10           0           0           0           0           0           0           0           0           0           0
      405514    13119794           7           0           0           0           0           0           0           0           0           0           0
      405514    13119854           8           0           0           0           0           0           0           0           0           0           0
      405514    13120134           7           0           0           0           0           0           0           0           0           0           0
      405514    13120537           6           0           0           0           0           0           0           0           0           0           0
      405514    13120886           7           0           0           0           0           0           0           0           0           0           0
      405514    13121016           6           0           0           0           0           0           0           0           0           0           0
      405514    13121047          10           0           0           0           0           0           0           0           0           0           0
      405514    13121280           7           0           0           0           0           0           0           0           0           0           0
      405514    13121390           5           0           0           1           0           0           0           0           0           0           0
      405514    13121417           3           0           0           0           0           0           0           0           0           0           0
      405514    13121584           7           0           0           0           0           0           0           0           0           0           0
      405514    13121607          13           0           0           0           0           0           0           0           0           0           0
      405514    13121665           9           0           0           0           0           0           0           0           0           0           0
      405514    13122224          10           0           0           0           0           0           0           0           0           0           0
      405514    13122529           7           0           0           0           0           0           0           0           0           0           0
      405514    13122605           5           0           0           0           0           0           0           0           0           0           0
      405514    13122765           8           0           0           0           0           0           0           0           0           0           0
      405514    13122934           7           0           0           0           0           0           0           0           0           0           0
      405514    13123352          10           0           0           0           0           0           0           0           0           0           0
      405514    13124147           4           0           0           0           0           0           0           0           0           0           0
      405514    13124732           4           0           0           0           0           0           0           0           0           0           0
      405514    13125452           9           0           0           0           0           0           0           0           0           0           0
      405514    13125455          11           0           0           0           0           0           0           0           0           0           0
      405514    13125824           3           0           0           0           0           0           0           0           0           0           0
      405514    13126467           7           0           0           0           0           0           0           0           0           0           0
      405514    13126477           3           0           0           0           0           0           0           0           0           0           0
      405514    13126657           3           0           0           0           0           0           0           0           0           0           0
      405514    13126751           6           0           0           0           0           0           0           0           0           0           0
      405514    13126775           7           0           0           0           0           0           0           0           0           0           0
      405514    13126841           4           0           0           0           0           0           0           0           0           0           0
      405514    13126941           7           0           0           0           0           0           0           0           0           0           0
      405514    13126979           7           0           0           0           0           0           0           0           0           0           0
      405514    13127035           4           0           0           0           0           0           0           0           0           0           0
      405514    13127451           7           0           0           0           0           0           0           0           0           0           0
      405514    13127706          10           0           0           0           0           0           0           0           0           0           0
      405514    13127838           5           0           0           0           0           0           0           0           0           0           0
      405514    13127964          10           0           0           1           0           0           0           0           1           0           1
      405514    13127975          10           0           0           0           0           0           0           0           0           0           0
      405514    13128475           6           0           0           0           0           0           0           0           0           0           0
      405514    13128912           8           0           0           0           0           0           0           0           0           0           0
      405514    13129217           7           0           0           0           0           0           0           0           0           0           0
      405514    13129283           8           0           0           0           0           0           0           0           0           0           0
      405514    13129781           5           0           0           0           0           0           0           0           0           0           0
      405514    13129951          12           0           0           0           0           0           0           0           0           0           0
      405514    13130152           7           0           0           0           0           0           0           0           0           0           0
      405514    13130472           6           0           0           0           0           0           0           0           0           0           0
      405514    13130542          10           0           0           1           0           0           0           0           0           0           0
      405514    13131001          11           0           0           0           0           0           0           0           0           0           0
      405514    13131217           8           0           0           0           0           0           0           0           0           0           0
      405514    13131229           9           0           0           0           0           0           0           0           0           0           0
      405514    13131247          13           0           0           0           0           0           0           0           0           0           0
      405514    13131724           8           0           0           0           0           0           0           0           0           0           0
      405514    13132031           5           0           0           0           0           0           0           0           0           0           0
      405514    13132239          12           0           0           0           0           0           0           0           0           0           0
      405514    13132271           7           0           0           0           0           0           0           0           0           0           0
      405514    13132532           3           0           0           0           0           0           0           0           0           0           0
      405514    13132533           9           0           0           0           0           0           0           0           0           0           0
      405514    13132636           8           0           0           0           0           0           0           0           0           0           0
      405514    13132990           8           0           0           0           0           0           0           0           0           0           0
      405514    13133357          10           0           0           0           0           0           0           0           0           0           0
      405514    13133491           8           0           0           0           0           0           0           0           0           0           0
      405514    13133493           5           0           0           0           0           0           0           0           0           0           0
      405514    13133527           7           0           0           0           0           0           0           0           0           0           0
      405514    13133690          10           0           0           0           0           0           0           0           0           0           0
      405514    13133911           4           0           0           0           0           0           0           0           0           0           0
      405514    13133972           8           0           0           0           0           0           0           0           0           0           0
      405514    13133977           5           0           0           0           0           0           0           0           0           0           0
      405514    13134435           6           0           0           0           0           0           0           0           0           0           0
      405514    13134605           5           0           0           0           0           0           0           0           0           0           0
      405514    13134895           7           0           0           0           0           0           0           0           0           0           0
      405514    13135107           8           0           0           0           0           0           0           0           0           0           0
      405514    13135197           5           0           0           0           0           0           0           0           0           0           0
      405514    13135240           4           0           0           0           0           0           0           0           0           0           0
      405514    13135373           9           0           0           0           0           0           0           0           0           0           0
      405514    13135459           6           0           0           0           0           0           0           0           0           0           0
      405514    13135510           5           0           0           0           0           0           0           0           0           0           0
      405514    13135684           8           0           0           0           0           0           0           0           0           0           0
      405514    13135771           8           0           0           0           0           0           0           0           0           0           0
      405514    13135936           9           0           0           0           0           0           0           0           0           0           0
      405514    13136072           8           0           0           0           0           0           0           0           0           0           0
      405514    13136174           9           0           0           0           0           0           0           0           0           0           0
      405514    13136233           9           0           0           0           0           0           0           0           0           0           0
      405514    13136283           6           0           0           0           0           0           0           0           0           0           0
      405514    13136406           5           0           0           0           0           0           0           0           0           0           0
      405514    13137221           7           0           0           0           0           0           0           0           0           0           0
      405514    13137306           6           0           0           0           0           0           0           0           0           0           0
      405514    13137415           9           0           0           0           0           0           0           0           0           0           0
      405514    13137796           8           0           0           0           0           0           0           0           0           0           0
      405514    13138036          12           0           0           0           0           0           0           0           0           0           0
      405514    13138450           5           0           0           0           0           0           0           0           0           0           0
      405514    13139026          12           0           0           0           0           0           0           0           0           0           0
      405514    13139061           3           0           0           0           0           0           0           0           0           0           0
      405514    13139320           9           0           0           0           0           0           0           0           0           0           0
      405514    13139620           5           0           0           0           0           0           0           0           0           0           0
      405514    13139693          11           0           0           0           0           0           0           0           0           0           0
      405514    13140031           4           0           0           0           0           0           0           0           0           0           0
      405514    13140233           5           0           0           0           0           0           0           0           0           0           0
      405514    13141535           8           0           0           0           0           0           0           0           0           0           0
      405514    13141654           5           0           0           0           0           0           0           0           0           0           0
      405514    13141737           6           0           0           0           0           0           0           0           0           0           0
      405514    13141753          11           0           0           0           0           0           0           0           0           0           0
      405514    13142061           7           0           0           0           0           0           0           0           0           0           0
      405514    13142450           6           0           0           0           0           0           0           0           0           0           0
      405514    13142460           5           0           0           0           0           0           0           0           0           0           0
      405514    13142549           5           0           0           0           0           0           0           0           0           0           0
      405514    13142730           8           0           0           0           0           0           0           0           0           0           0
      405514    13142942           8           0           0           0           0           0           0           0           0           0           0
      405514    13142971           7           0           0           0           0           0           0           0           0           0           0
      405514    13143102          10           0           0           0           0           0           0           0           0           0           0
      405514    13143184           5           0           0           0           0           0           0           0           0           0           0
      405514    13143466           4           0           0           0           0           0           0           0           0           0           0
      405514    13143505           6           0           0           0           0           0           0           0           0           0           0
      405514    13143666           5           0           0           0           0           0           0           0           0           0           0
      405514    13143772           6           0           0           0           0           0           0           0           0           0           0
      405514    13143838          11           0           0           0           0           0           0           0           0           0           0
      405514    13144429           8           0           0           0           0           0           0           0           0           0           0
      405514    13144461           8           0           0           0           0           0           0           0           0           0           0
      405514    13144669           9           0           0           0           0           0           0           0           0           0           0
      405514    13144806          10           0           0           0           0           0           0           0           0           0           0
      405514    13144932           7           0           0           0           0           0           0           0           0           0           0
      405514    13145081           6           0           0           0           0           0           0           0           0           0           0
      405514    13145484           6           0           0           0           0           0           0           0           0           0           0
      405514    13145794           7           0           0           0           0           0           0           0           0           0           0
      405514    13146487           7           0           0           0           0           0           0           0           0           0           0
      405514    13146571           8           0           0           0           0           0           0           0           0           0           0
      405514    13146907           6           0           0           0           0           0           0           0           0           0           0
      405514    13147051           7           0           0           0           0           0           0           0           0           0           0
      405514    13147072           6           0           0           0           0           0           0           0           0           0           0
      405514    13147196           6           0           0           0           0           0           0           0           0           0           0
      405514    13147207           7           0           0           0           0           0           0           0           0           0           0
      405514    13147437          10           0           0           0           0           0           0           0           0           0           0
      405514    13148071           8           0           0           0           0           0           0           0           0           0           0
      405514    13148308          10           0           0           2           0           0           0           0           0           0           0
      405514    13148390           7           0           0           0           0           0           0           0           0           0           0
      405514    13148486           6           0           0           0           0           0           0           0           0           0           0
      405514    13148713           7           0           0           0           0           0           0           0           0           0           0
      405514    13148855           6           0           0           0           0           0           0           0           0           0           0
      405514    13148948           8           0           0           0           0           0           0           0           0           0           0
      405514    13149156           9           0           0           0           0           0           0           0           0           0           0
      405514    13149203          10           0           0           0           0           0           0           0           0           0           0
      405514    13149339           8           0           0           0           0           0           0           0           0           0           0
      405514    13149401           7           0           0           0           0           0           0           0           0           0           0
      405514    13149431          13           0           0           0           0           0           0           0           0           0           0
      405514    13149866           9           0           0           0           0           0           0           0           0           0           0
      405514    13149901           7           0           0           0           0           0           0           0           0           0           0
      405514    13150165           9           0           0           0           0           0           0           0           0           0           0
      405514    13150864           9           0           0           0           0           0           0           0           0           0           0
      405514    13151077          11           0           0           0           0           0           0           0           0           0           0
      405514    13151091           9           0           0           0           0           0           0           0           0           0           0
      405514    13151146           8           0           0           0           0           0           0           0           0           0           0
      405514    13151448           9           0           0           0           0           0           0           0           0           0           0
      405514    13151539           7           0           0           0           0           0           0           0           0           0           0
      405514    13151603           9           0           0           0           0           0           0           0           0           0           0
      405514    13151789           8           0           0           0           0           0           0           0           0           0           0
      405514    13151965          10           0           0           0           0           0           0           0           0           0           0
      405514    13152046           7           0           0           0           0           0           0           0           0           0           0
      405514    13152268           7           0           0           0           0           0           0           0           0           0           0
      405514    13152371          10           0           0           0           0           0           0           0           0           0           0
      405514    13152415           6           0           0           0           0           0           0           0           0           0           0
      405514    13152543           8           0           0           0           0           0           0           0           0           0           0
      405514    13152568           9           0           0           0           0           0           0           0           0           0           0
      405514    13152771           7           0           0           0           0           0           0           0           0           0           0
      405514    13152829           8           0           0           0           0           0           0           0           0           0           0
      405514    13152955           2           0           0           0           0           0           0           0           0           0           0
      405514    13153200           7           0           0           0           0           0           0           0           0           0           0
      405514    13153354           3           0           0           0           0           0           0           0           0           0           0
      405514    13153375           9           0           0           0           0           0           0           0           0           0           0
      405514    13153631          11           0           0           1           0           0           0           0           1           0           1
      405514    13154016           5           0           0           0           0           0           0           0           0           0           0
      405514    13155323           8           0           0           0           0           0           0           0           0           0           0
      405514    13155584          11           0           0           0           0           0           0           0           0           0           0
      405514    13155717           6           0           0           0           0           0           0           0           0           0           0
      405514    13156280           4           0           0           0           0           0           0           0           0           0           0
      405514    13156342          10           0           0           0           0           0           0           0           0           0           0
      405514    13156390           5           0           0           0           0           0           0           0           0           0           0
      405514    13156602           5           0           0           0           0           0           0           0           0           0           0
      405514    13156859           7           0           0           0           0           0           0           0           0           0           0
      405514    13157079           7           0           0           0           0           0           0           0           0           0           0
      405514    13157449           4           0           0           0           0           0           0           0           0           0           0
      405514    13157858           8           0           0           0           0           0           0           0           0           0           0
      405514    13158095          10           0           0           0           0           0           0           0           0           0           0
      405514    13158192           7           0           0           0           0           0           0           0           0           0           0
      405514    13158328          12           0           0           1           0           0           0           0           0           0           0
      405514    13158790           6           0           0           0           0           0           0           0           0           0           0
      405514    13159130           9           0           0           0           0           0           0           0           0           0           0
      405514    13159239           9           0           0           0           0           0           0           0           0           0           0
      405514    13159300           9           0           0           0           0           0           0           0           0           0           0
      405514    13159551           4           0           0           0           0           0           0           0           0           0           0
      405514    13159565           8           0           0           0           0           0           0           0           0           0           0
      405514    13159680           8           0           0           0           0           0           0           0           0           0           0
      405514    13159883           5           0           0           0           0           0           0           0           0           0           0
      405514    13160271          11           0           0           0           0           0           0           0           0           0           0
      405514    13160501           7           0           0           0           0           0           0           0           0           0           0
      405514    13160687           5           0           0           0           0           0           0           0           0           0           0
      405514    13161039           7           0           0           0           0           0           0           0           0           0           0
      405514    13161596          11           0           0           1           0           0           0           0           0           0           0
      405514    13161931           6           0           0           0           0           0           0           0           0           0           0
      405514    13162112          10           0           0           0           0           0           0           0           0           0           0
      405514    13162271           8           0           0           0           0           0           0           0           0           0           0
      405514    13162492           5           0           0           0           0           0           0           0           0           0           0
      405514    13162541          13           0           0           0           0           0           0           0           0           0           0
      405514    13162656          11           0           0           0           0           0           0           0           0           0           0
      405514    13162961          11           0           0           0           0           0           0           0           0           0           0
      405514    13163358           7           0           0           0           0           0           0           0           0           0           0
      405514    13163730          10           0           0           0           0           0           0           0           0           0           0
      405514    13163899           5           0           0           0           0           0           0           0           0           0           0
      405514    13164175           8           0           0           0           0           0           0           0           0           0           0
      405514    13164945           7           0           0           0           0           0           0           0           0           0           0
      405514    13164980           4           0           0           0           0           0           0           0           0           0           0
      405514    13164988           4           0           0           0           0           0           0           0           0           0           0
      405514    13165084           6           0           0           0           0           0           0           0           0           0           0
      405514    13165272           3           0           0           0           0           0           0           0           0           0           0
      405514    13165409           6           0           0           0           0           0           0           0           0           0           0
      405514    13165504          13           0           0           0           0           0           0           0           0           0           0
      405514    13165539          10           0           0           0           0           0           0           0           0           0           0
      405514    13165594          13           0           0           0           0           0           0           0           0           0           0
      405514    13165646          13           0           0           0           0           0           0           0           0           0           0
      405514    13165940           5           0           0           0           0           0           0           0           0           0           0
      405514    13165959           8           0           0           0           0           0           0           0           0           0           0
      405514    13166045           6           0           0           0           0           0           0           0           0           0           0
      405514    13166342           5           0           0           0           0           0           0           0           0           0           0
      405514    13166393           6           0           0           0           0           0           0           0           0           0           0
      405514    13166447           7           0           0           0           0           0           0           0           0           0           0
      405514    13166624           6           0           0           0           0           0           0           0           0           0           0
      405514    13166798           7           0           0           0           0           0           0           0           0           0           0
      405514    13166807          13           0           0           0           0           0           0           0           0           0           0
      405514    13167308           3           0           0           0           0           0           0           0           0           0           0
      405514    13167729           8           0           0           0           0           0           0           0           0           0           0
      405514    13167905           5           0           0           0           0           0           0           0           0           0           0
      405514    13168031           9           0           0           0           0           0           0           0           0           0           0
      405514    13168277           8           0           0           0           0           0           0           0           0           0           0
      405514    13168328           3           0           0           0           0           0           0           0           0           0           0
      405514    13168752           5           0           0           0           0           0           0           0           0           0           0
      405514    13169224           6           0           0           0           0           0           0           0           0           0           0
      405514    13169262          10           0           0           0           0           0           0           0           0           0           0
      405514    13169342          10           0           0           0           0           0           0           0           0           0           0
      405514    13169552          10           0           0           0           0           0           0           0           0           0           0
      405514    13169707          16           0           0           1           0           0           0           0           0           0           0
      405514    13169722          10           0           0           0           0           0           0           0           0           0           0
      405514    13169760           7           0           0           0           0           0           0           0           0           0           0
      405514    13170150           5           0           0           0           0           0           0           0           0           0           0
      405514    13170201           5           0           0           0           0           0           0           0           0           0           0
      405514    13170527          12           0           0           0           0           0           0           0           0           0           0
      405514    13170569           7           0           0           0           0           0           0           0           0           0           0
      405514    13170704           7           0           0           0           0           0           0           0           0           0           0
      405514    13171198           3           0           0           0           0           0           0           0           0           0           0
      405514    13171289          12           0           0           0           0           0           0           0           0           0           0
      405514    13171368           7           0           0           0           0           0           0           0           0           0           0
      405514    13172447           5           0           0           0           0           0           0           0           0           0           0
      405514    13172594           6           0           0           0           0           0           0           0           0           0           0
      405514    13172795           8           0           0           0           0           0           0           0           0           0           0
      405514    13173046          15           0           0           0           0           0           0           0           0           0           0
      405514    13173377           8           0           0           0           0           0           0           0           0           0           0
      405514    13173583           8           0           0           0           0           0           0           0           0           0           0
      405514    13174120          10           0           0           0           0           0           0           0           0           0           0
      405514    13174207          10           0           0           0           0           0           0           0           0           0           0
      405514    13174228           8           0           0           0           0           0           0           0           0           0           0
      405514    13174344          10           0           0           0           0           0           0           0           0           0           0
      405514    13174583           8           0           0           0           0           0           0           0           0           0           0
      405514    13174643          10           0           0           0           0           0           0           0           0           0           0
      405514    13174757           3           0           0           0           0           0           0           0           0           0           0
      405514    13175046           8           0           0           0           0           0           0           0           0           0           0
      405514    13176374           5           0           0           0           0           0           0           0           0           0           0
      405514    13176376           8           0           0           0           0           0           0           0           0           0           0
      405514    13176785           9           0           0           0           0           0           0           0           0           0           0
      405514    13176939          11           0           0           0           0           0           0           0           0           0           0
      405514    13176982           6           0           0           0           0           0           0           0           0           0           0
      405514    13177106           5           0           0           0           0           0           0           0           0           0           0
      405514    13177372          10           0           0           0           0           0           0           0           0           0           0
      405514    13177690          10           0           0           0           0           0           0           0           0           0           0
      405514    13177925           9           0           0           0           0           0           0           0           0           0           0
      405514    13178445           6           0           0           0           0           0           0           0           0           0           0
      405514    13178499           5           0           0           0           0           0           0           0           0           0           0
      405514    13178597           8           0           0           0           0           0           0           0           0           0           0
      405514    13178718           8           0           0           0           0           0           0           0           0           0           0
      405514    13178791           9           0           0           0           0           0           0           0           0           0           0
      405514    13178940           3           0           0           0           0           0           0           0           0           0           0
      405514    13179084           8           0           0           0           0           0           0           0           0           0           0
      405514    13179180           7           0           0           0           0           0           0           0           0           0           0
      405514    13179465           7           0           0           0           0           0           0           0           0           0           0
      405514    13179528          10           0           0           0           0           0           0           0           0           0           0
      405514    13179635           5           0           0           0           0           0           0           0           0           0           0
      405514    13180509           3           0           0           0           0           0           0           0           0           0           0
      405514    13180597           9           0           0           0           0           0           0           0           0           0           0
      405514    13180604           4           0           0           0           0           0           0           0           0           0           0
      405514    13180776           3           0           0           0           0           0           0           0           0           0           0
      405514    13181016           8           0           0           0           0           0           0           0           0           0           0
      405514    13181178           8           0           0           0           0           0           0           0           0           0           0
      405514    13181231           8           0           0           0           0           0           0           0           0           0           0
      405514    13181266           4           0           0           0           0           0           0           0           0           0           0
      405514    13181937           9           0           0           1           0           0           0           0           1           0           1
      405514    13182113           1           0           0           0           0           0           0           0           0           0           0
      405514    13182304           6           0           0           0           0           0           0           0           0           0           0
      405514    13182599           6           0           0           0           0           0           0           0           0           0           0
      405514    13182659           5           0           0           0           0           0           0           0           0           0           0
      405514    13182665           7           0           0           0           0           0           0           0           0           0           0
      405514    13182678           6           0           0           0           0           0           0           0           0           0           0
      405514    13182683           4           0           0           0           0           0           0           0           0           0           0
      405514    13182689           4           0           0           0           0           0           0           0           0           0           0
      405514    13182942           7           0           0           0           0           0           0           0           0           0           0
      405514    13183623           8           0           0           0           0           0           0           0           0           0           0
      405514    13183829           5           0           0           0           0           0           0           0           0           0           0
      405514    13183842           8           0           0           0           0           0           0           0           0           0           0
      405514    13185000           7           0           0           0           0           0           0           0           0           0           0
      405514    13185333           3           0           0           0           0           0           0           0           0           0           0
      405514    13185553           4           0           0           0           0           0           0           0           0           0           0
      405514    13185693           6           0           0           0           0           0           0           0           0           0           0
      405514    13186111           7           0           0           0           0           0           0           0           0           0           0
      405514    13186128           4           0           0           0           0           0           0           0           0           0           0
      405514    13186630           6           0           0           0           0           0           0           0           0           0           0
      405514    13186754           6           0           0           0           0           0           0           0           0           0           0
      405514    13186865           7           0           0           0           0           0           0           0           0           0           0
      405514    13187127          10           0           0           0           0           0           0           0           0           0           0
      405514    13187283           9           0           0           0           0           0           0           0           0           0           0
      405514    13187362           4           0           0           0           0           0           0           0           0           0           0
      405514    13187603           6           0           0           0           0           0           0           0           0           0           0
      405514    13187650          11           0           0           0           0           0           0           0           0           0           0
      405514    13187652           6           0           0           0           0           0           0           0           0           0           0
      405514    13187787           7           0           0           0           0           0           0           0           0           0           0
      405514    13188003           9           0           0           0           0           0           0           0           0           0           0
      405514    13188358           7           0           0           0           0           0           0           0           0           0           0
      405514    13189222           8           0           0           0           0           0           0           0           0           0           0
      405514    13189707           5           0           0           0           0           0           0           0           0           0           0
      405514    13189940           8           0           0           0           0           0           0           0           0           0           0
      405514    13190198           7           0           0           0           0           0           0           0           0           0           0
